<?xml version="1.0" encoding="UTF-8" standalone="no"?>
<svg
   xmlns:dc="http://purl.org/dc/elements/1.1/"
   xmlns:cc="http://creativecommons.org/ns#"
   xmlns:rdf="http://www.w3.org/1999/02/22-rdf-syntax-ns#"
   xmlns:svg="http://www.w3.org/2000/svg"
   xmlns="http://www.w3.org/2000/svg"
   xmlns:sodipodi="http://sodipodi.sourceforge.net/DTD/sodipodi-0.dtd"
   xmlns:inkscape="http://www.inkscape.org/namespaces/inkscape"
   version="1.1"
   width="179.64965pt"
   height="97.90614pt"
   viewBox="0 0 179.64965 97.90614"
   id="svg30"
   sodipodi:docname="capitulo1ejemplo1.svg"
   inkscape:version="1.0.1 (3bc2e813f5, 2020-09-07)">
  <metadata
     id="metadata36">
    <rdf:RDF>
      <cc:Work
         rdf:about="">
        <dc:format>image/svg+xml</dc:format>
        <dc:type
           rdf:resource="http://purl.org/dc/dcmitype/StillImage" />
        <dc:title></dc:title>
      </cc:Work>
    </rdf:RDF>
  </metadata>
  <defs
     id="defs34" />
  <sodipodi:namedview
     pagecolor="#ffffff"
     bordercolor="#666666"
     borderopacity="1"
     objecttolerance="10"
     gridtolerance="10"
     guidetolerance="10"
     inkscape:pageopacity="0"
     inkscape:pageshadow="2"
     inkscape:window-width="1366"
     inkscape:window-height="768"
     id="namedview32"
     showgrid="false"
     inkscape:zoom="2.9035355"
     inkscape:cx="164.19569"
     inkscape:cy="79.397571"
     inkscape:window-x="0"
     inkscape:window-y="0"
     inkscape:window-maximized="1"
     inkscape:current-layer="svg30" />
  <g
     enable-background="new"
     id="g28"
     transform="matrix(0.82843746,0,0,0.82515864,13.108404,9.6149557)">
    <g
       id="g26">
      <path
         stroke-width="0.749999"
         stroke-linecap="butt"
         stroke-miterlimit="4"
         stroke-linejoin="miter"
         fill="none"
         stroke="#000000"
         d="m 2.645,46.57 173.55,-0.906 -5.152,-4.391"
         id="path2" />
      <path
         stroke-width="0.749999"
         stroke-linecap="butt"
         stroke-miterlimit="4"
         stroke-linejoin="miter"
         fill="none"
         stroke="#000000"
         d="m 176.195,45.664 -4.707,4.07"
         id="path4" />
      <path
         stroke-width="0.749999"
         stroke-linecap="butt"
         stroke-miterlimit="4"
         stroke-linejoin="miter"
         fill="none"
         stroke="#000000"
         d="m 151.07,46.227 -0.25,-27.485 -3.258,3.203"
         id="path6" />
      <path
         stroke-width="0.749999"
         stroke-linecap="butt"
         stroke-miterlimit="4"
         stroke-linejoin="miter"
         fill="none"
         stroke="#000000"
         d="m 150.82,18.742 3.231,3.52"
         id="path8" />
      <path
         stroke-width="0.749999"
         stroke-linecap="butt"
         stroke-miterlimit="4"
         stroke-linejoin="miter"
         fill="none"
         stroke="#000000"
         d="m 10.516,55.285 0.183,27.801 3.742,-5.16"
         id="path10" />
      <path
         stroke-width="0.749999"
         stroke-linecap="butt"
         stroke-miterlimit="4"
         stroke-linejoin="miter"
         fill="none"
         stroke="#000000"
         d="m 5.77,77.918 4.929,5.168"
         id="path12" />
      <text
         xml:space="preserve"
         font-size="9px"
         font-family="NotoSans"
         id="text24"><tspan
           y="97.384132"
           x="-0.87300003 4.572 6.9120002 12.06 14.400001 19.548 24.696001 29.844002 34.992001 40.139999"
           id="tspan14">P = $30000</tspan><tspan
           y="54.477333"
           x="8.2304363"
           id="tspan16">0</tspan><tspan
           y="54.428802"
           x="60.709335 63.031334 65.371338 70.519341 72.859344 76.765343 79.105347 86.584351 88.924347 94.459351 102.87435"
           id="tspan18">i = ? % pmv</tspan><tspan
           y="76.928802"
           x="60.709335 66.271332 68.611328 73.759331 76.099335 81.247337 83.587341 89.122345 97.537346"
           id="tspan20">n = 6 pmv</tspan><tspan
           y="6.830986"
           x="134.70377 139.37477 141.71477 146.86276 149.20276 154.35075 159.49875 164.64674 169.79474 174.94273"
           id="tspan22">F = $35000</tspan></text>
    </g>
  </g>
</svg>
