<?xml version="1.0" encoding="UTF-8" standalone="no"?>
<!-- Created with Inkscape (http://www.inkscape.org/) -->

<svg
   xmlns:dc="http://purl.org/dc/elements/1.1/"
   xmlns:cc="http://creativecommons.org/ns#"
   xmlns:rdf="http://www.w3.org/1999/02/22-rdf-syntax-ns#"
   xmlns:svg="http://www.w3.org/2000/svg"
   xmlns="http://www.w3.org/2000/svg"
   xmlns:sodipodi="http://sodipodi.sourceforge.net/DTD/sodipodi-0.dtd"
   xmlns:inkscape="http://www.inkscape.org/namespaces/inkscape"
   width="297mm"
   height="210mm"
   viewBox="0 0 297 210"
   version="1.1"
   id="svg8025"
   inkscape:version="0.92.4 (5da689c313, 2019-01-14)"
   sodipodi:docname="Capitulo6Ejemplo3.1.svg">
  <defs
     id="defs8019">
    <pattern
       y="0"
       x="0"
       height="6"
       width="6"
       patternUnits="userSpaceOnUse"
       id="EMFhbasepattern" />
    <pattern
       y="0"
       x="0"
       height="6"
       width="6"
       patternUnits="userSpaceOnUse"
       id="EMFhbasepattern-5" />
    <pattern
       y="0"
       x="0"
       height="6"
       width="6"
       patternUnits="userSpaceOnUse"
       id="EMFhbasepattern-3" />
  </defs>
  <sodipodi:namedview
     id="base"
     pagecolor="#ffffff"
     bordercolor="#666666"
     borderopacity="1.0"
     inkscape:pageopacity="0.0"
     inkscape:pageshadow="2"
     inkscape:zoom="0.98994949"
     inkscape:cx="408.61859"
     inkscape:cy="431.06818"
     inkscape:document-units="mm"
     inkscape:current-layer="layer1"
     showgrid="false"
     inkscape:snap-global="false"
     inkscape:window-width="1366"
     inkscape:window-height="705"
     inkscape:window-x="-8"
     inkscape:window-y="-8"
     inkscape:window-maximized="1" />
  <metadata
     id="metadata8022">
    <rdf:RDF>
      <cc:Work
         rdf:about="">
        <dc:format>image/svg+xml</dc:format>
        <dc:type
           rdf:resource="http://purl.org/dc/dcmitype/StillImage" />
        <dc:title></dc:title>
      </cc:Work>
    </rdf:RDF>
  </metadata>
  <g
     inkscape:label="Capa 1"
     inkscape:groupmode="layer"
     id="layer1"
     style="display:inline"
     transform="translate(0,-87)">
    <path
       inkscape:connector-curvature="0"
       id="path1325-7"
       d="m 109.64036,181.76627 98.93387,-29.79236"
       style="display:inline;fill:none;stroke:#0c7cba;stroke-width:0.46628872;stroke-linecap:butt;stroke-linejoin:miter;stroke-miterlimit:4;stroke-dasharray:none;stroke-opacity:1" />
    <path
       sodipodi:nodetypes="cssc"
       inkscape:connector-curvature="0"
       id="path1335-2"
       d="m 211.24766,200.99899 c 0,0 -4.34001,14.2961 -37.50991,28.02319 -5.40127,2.23527 -13.97317,1.19811 -18.45423,1.19952 -19.77637,0.006 -25.01482,-3.52192 -52.43376,-24.69789"
       style="display:inline;fill:none;stroke:#0c7cba;stroke-width:0.80236495;stroke-linecap:butt;stroke-linejoin:miter;stroke-miterlimit:4;stroke-dasharray:2.40709485, 2.40709485;stroke-dashoffset:0;stroke-opacity:1" />
    <g
       style="display:inline"
       id="g1368-14-12"
       transform="matrix(-0.99998768,-0.00724628,0.00861313,-2.5336162,306.66511,635.41417)">
      <path
         style="fill:none;stroke:#000000;stroke-width:0.585352;stroke-linecap:butt;stroke-linejoin:miter;stroke-miterlimit:4;stroke-dasharray:none;stroke-opacity:1"
         d="m 100.09309,174.72362 0.27486,13.59544"
         id="path1329-81-9"
         inkscape:connector-curvature="0" />
      <text
         id="text1350-76-1"
         y="245.51529"
         x="77.303139"
         style="font-style:normal;font-variant:normal;font-weight:400;font-size:3.00890756px;line-height:125%;font-family:'Segoe UI Emoji';text-align:start;letter-spacing:0px;word-spacing:0px;text-anchor:start;fill:#000000;fill-opacity:1;stroke:none;stroke-width:0.20486178"
         xml:space="preserve"
         transform="matrix(1.2915084,-0.0014793,-0.004455,0.77429351,0,0)"><tspan
           id="tspan1348-63-5"
           y="245.51529"
           x="77.303139"
           sodipodi:role="line"
           style="stroke-width:0.20486178"><tspan
             id="tspan1344-4-83"
             style="font-style:normal;font-variant:normal;font-weight:400;font-size:3.00890756px;font-family:'Segoe UI Emoji';fill:#000000;stroke-width:0.20486178"
             dy="0"
             dx="0">▼</tspan><tspan
             id="tspan1346-46-1"
             style="font-style:normal;font-variant:normal;font-weight:400;font-size:3.00890756px;font-family:Calibri;fill:#000000;stroke-width:0.20486178"
             dy="0"
             dx="0"> </tspan></tspan></text>
    </g>
    <g
       style="display:inline"
       id="g1683-4"
       transform="matrix(0.95503116,0,0,1,-10.822273,17.812589)">
      <path
         style="fill:none;stroke:#000000;stroke-width:0.565;stroke-linecap:butt;stroke-linejoin:miter;stroke-miterlimit:4;stroke-dasharray:none;stroke-opacity:1"
         d="m 89.26802,174.32329 c 149.67093,0.26727 149.67093,0.26727 149.67093,0.26727"
         id="path514-7"
         inkscape:connector-curvature="0" />
      <text
         id="text1665-3"
         y="142.8988"
         x="296.71558"
         style="font-style:normal;font-variant:normal;font-weight:400;font-size:7.60175419px;line-height:125%;font-family:'Segoe UI Emoji';text-align:start;letter-spacing:0px;word-spacing:0px;text-anchor:start;fill:#000000;fill-opacity:1;stroke:none;stroke-width:0.51756626"
         xml:space="preserve"
         transform="scale(0.80391189,1.2439174)"><tspan
           id="tspan1663-9"
           y="142.8988"
           x="296.71558"
           sodipodi:role="line"
           style="stroke-width:0.51756626"><tspan
             id="tspan1659-4"
             style="font-style:normal;font-variant:normal;font-weight:400;font-size:7.60175419px;font-family:'Segoe UI Emoji';fill:#000000;stroke-width:0.51756626"
             dy="0"
             dx="0">►</tspan><tspan
             id="tspan1661-6"
             style="font-style:normal;font-variant:normal;font-weight:400;font-size:7.60175419px;font-family:Calibri;fill:#000000;stroke-width:0.51756626"
             dy="0"
             dx="0"> </tspan></tspan></text>
    </g>
    <text
       transform="scale(0.96962495,1.0313266)"
       id="text1787-0"
       y="191.65721"
       x="71.252739"
       style="font-style:normal;font-weight:normal;font-size:4.61203337px;line-height:1.25;font-family:sans-serif;letter-spacing:0px;word-spacing:0px;display:inline;fill:#000000;fill-opacity:1;stroke:none;stroke-width:0.11530083"
       xml:space="preserve"><tspan
         style="stroke-width:0.11530083"
         y="191.65721"
         x="71.252739"
         id="tspan1785-9"
         sodipodi:role="line">0</tspan></text>
    <text
       transform="scale(0.96962495,1.0313266)"
       id="text1787-5-1"
       y="192.44746"
       x="85.523033"
       style="font-style:normal;font-weight:normal;font-size:4.61203337px;line-height:1.25;font-family:sans-serif;letter-spacing:0px;word-spacing:0px;display:inline;fill:#000000;fill-opacity:1;stroke:none;stroke-width:0.11530083"
       xml:space="preserve"><tspan
         id="tspan1879-9"
         style="stroke-width:0.11530083"
         y="192.44746"
         x="85.523033"
         sodipodi:role="line">1</tspan></text>
    <text
       transform="scale(0.96962495,1.0313266)"
       id="text1787-3-5"
       y="192.79173"
       x="99.029495"
       style="font-style:normal;font-weight:normal;font-size:4.61203337px;line-height:1.25;font-family:sans-serif;letter-spacing:0px;word-spacing:0px;display:inline;fill:#000000;fill-opacity:1;stroke:none;stroke-width:0.11530083"
       xml:space="preserve"><tspan
         style="stroke-width:0.11530083"
         y="192.79173"
         x="99.029495"
         id="tspan1785-2-5"
         sodipodi:role="line">2</tspan></text>
    <text
       transform="scale(0.96962495,1.0313266)"
       id="text1787-1-4"
       y="192.06793"
       x="114.10505"
       style="font-style:normal;font-weight:normal;font-size:4.61203337px;line-height:1.25;font-family:sans-serif;letter-spacing:0px;word-spacing:0px;display:inline;fill:#000000;fill-opacity:1;stroke:none;stroke-width:0.11530083"
       xml:space="preserve"><tspan
         style="stroke-width:0.11530083"
         y="192.06793"
         x="114.10505"
         id="tspan1785-7-8"
         sodipodi:role="line">3</tspan></text>
    <text
       transform="scale(0.96962495,1.0313266)"
       id="text1787-34-5"
       y="192.22893"
       x="132.06905"
       style="font-style:normal;font-weight:normal;font-size:4.61203337px;line-height:1.25;font-family:sans-serif;letter-spacing:0px;word-spacing:0px;display:inline;fill:#000000;fill-opacity:1;stroke:none;stroke-width:0.11530083"
       xml:space="preserve"><tspan
         style="stroke-width:0.11530083"
         y="192.22893"
         x="132.06905"
         id="tspan1785-74-0"
         sodipodi:role="line">4</tspan></text>
    <text
       transform="scale(0.96962495,1.0313266)"
       id="text1787-14-5"
       y="193.22491"
       x="151.66736"
       style="font-style:normal;font-weight:normal;font-size:4.61203337px;line-height:1.25;font-family:sans-serif;letter-spacing:0px;word-spacing:0px;display:inline;fill:#000000;fill-opacity:1;stroke:none;stroke-width:0.11530083"
       xml:space="preserve"><tspan
         style="stroke-width:0.11530083"
         y="193.22491"
         x="151.66736"
         id="tspan1785-3-9"
         sodipodi:role="line">5</tspan></text>
    <text
       transform="scale(0.96962495,1.0313266)"
       id="text1787-2-2"
       y="193.01942"
       x="213.49431"
       style="font-style:normal;font-weight:normal;font-size:4.61203337px;line-height:1.25;font-family:sans-serif;letter-spacing:0px;word-spacing:0px;display:inline;fill:#000000;fill-opacity:1;stroke:none;stroke-width:0.11530083"
       xml:space="preserve"><tspan
         style="stroke-width:0.11530083"
         y="193.01942"
         x="213.49431"
         id="tspan1785-4-0"
         sodipodi:role="line">8   pav</tspan></text>
    <g
       style="display:inline"
       id="g1368-14-4-6"
       transform="matrix(-0.99998768,-0.00401095,0.00861313,-1.4024028,286.93837,424.68564)">
      <path
         style="fill:none;stroke:#000000;stroke-width:0.73768568;stroke-linecap:butt;stroke-linejoin:miter;stroke-miterlimit:4;stroke-dasharray:none;stroke-opacity:1"
         d="m 100.01619,165.87178 0.34352,21.41408"
         id="path1329-81-2-7"
         inkscape:connector-curvature="0" />
      <text
         id="text1350-76-5-6"
         y="189.98271"
         x="98.743851"
         style="font-style:normal;font-variant:normal;font-weight:400;font-size:3.88606763px;line-height:125%;font-family:'Segoe UI Emoji';text-align:start;letter-spacing:0px;word-spacing:0px;text-anchor:start;fill:#000000;fill-opacity:1;stroke:none;stroke-width:0.26458332"
         xml:space="preserve"><tspan
           id="tspan1348-63-4-5"
           y="189.98271"
           x="98.743851"
           sodipodi:role="line"
           style="stroke-width:0.26458332"><tspan
             id="tspan1344-4-8-7"
             style="font-style:normal;font-variant:normal;font-weight:400;font-size:3.88606763px;font-family:'Segoe UI Emoji';fill:#000000;stroke-width:0.26458332"
             dy="0"
             dx="0">▼</tspan><tspan
             id="tspan1346-46-8-4"
             style="font-style:normal;font-variant:normal;font-weight:400;font-size:3.88606763px;font-family:Calibri;fill:#000000;stroke-width:0.26458332"
             dy="0"
             dx="0"> </tspan></tspan></text>
    </g>
    <g
       style="display:inline"
       id="g1368-14-1"
       transform="matrix(-0.99998768,-0.00308598,0.00861313,-1.0789914,266.44248,369.03803)">
      <path
         style="fill:none;stroke:#000000;stroke-width:0.76867568;stroke-linecap:butt;stroke-linejoin:miter;stroke-miterlimit:4;stroke-dasharray:none;stroke-opacity:1"
         d="m 100.00037,164.03475 0.35934,23.25111"
         id="path1329-81-3"
         inkscape:connector-curvature="0" />
      <text
         id="text1350-76-2"
         y="189.98271"
         x="98.743851"
         style="font-style:normal;font-variant:normal;font-weight:400;font-size:3.88606763px;line-height:125%;font-family:'Segoe UI Emoji';text-align:start;letter-spacing:0px;word-spacing:0px;text-anchor:start;fill:#000000;fill-opacity:1;stroke:none;stroke-width:0.26458332"
         xml:space="preserve"><tspan
           id="tspan1348-63-3"
           y="189.98271"
           x="98.743851"
           sodipodi:role="line"
           style="stroke-width:0.26458332"><tspan
             id="tspan1344-4-5"
             style="font-style:normal;font-variant:normal;font-weight:400;font-size:3.88606763px;font-family:'Segoe UI Emoji';fill:#000000;stroke-width:0.26458332"
             dy="0"
             dx="0">▼</tspan><tspan
             id="tspan1346-46-4"
             style="font-style:normal;font-variant:normal;font-weight:400;font-size:3.88606763px;font-family:Calibri;fill:#000000;stroke-width:0.26458332"
             dy="0"
             dx="0"> </tspan></tspan></text>
    </g>
    <g
       style="display:inline"
       id="g1368-14-3-1"
       transform="matrix(-0.99998768,-0.00205438,0.00861313,-0.71830308,246.56334,307.90125)">
      <path
         style="fill:none;stroke:#000000;stroke-width:0.81520581;stroke-linecap:butt;stroke-linejoin:miter;stroke-miterlimit:4;stroke-dasharray:none;stroke-opacity:1"
         d="m 99.975389,161.13459 0.384321,26.15127"
         id="path1329-81-4-7"
         inkscape:connector-curvature="0" />
      <text
         id="text1350-76-4-2"
         y="189.98271"
         x="98.743851"
         style="font-style:normal;font-variant:normal;font-weight:400;font-size:3.88606763px;line-height:125%;font-family:'Segoe UI Emoji';text-align:start;letter-spacing:0px;word-spacing:0px;text-anchor:start;fill:#000000;fill-opacity:1;stroke:none;stroke-width:0.26458332"
         xml:space="preserve"><tspan
           id="tspan1348-63-6-4"
           y="189.98271"
           x="98.743851"
           sodipodi:role="line"
           style="stroke-width:0.26458332"><tspan
             id="tspan1344-4-1-1"
             style="font-style:normal;font-variant:normal;font-weight:400;font-size:3.88606763px;font-family:'Segoe UI Emoji';fill:#000000;stroke-width:0.26458332"
             dy="0"
             dx="0">▼</tspan><tspan
             id="tspan1346-46-6-2"
             style="font-style:normal;font-variant:normal;font-weight:400;font-size:3.88606763px;font-family:Calibri;fill:#000000;stroke-width:0.26458332"
             dy="0"
             dx="0"> </tspan></tspan></text>
    </g>
    <g
       style="display:inline"
       id="g1368-14-2-8"
       transform="matrix(-0.99998768,-0.00137245,0.00861313,-0.4798685,229.95628,281.07634)">
      <path
         style="fill:none;stroke:#000000;stroke-width:0.85874492;stroke-linecap:butt;stroke-linejoin:miter;stroke-miterlimit:4;stroke-dasharray:none;stroke-opacity:1"
         d="m 102.06903,184.7881 0.40902,29.01933"
         id="path1329-81-6-2"
         inkscape:connector-curvature="0" />
      <text
         id="text1350-76-9-5"
         y="157.81778"
         x="138.41467"
         style="font-style:normal;font-variant:normal;font-weight:400;font-size:5.38000345px;line-height:125%;font-family:'Segoe UI Emoji';text-align:start;letter-spacing:0px;word-spacing:0px;text-anchor:start;fill:#000000;fill-opacity:1;stroke:none;stroke-width:0.36629808"
         xml:space="preserve"
         transform="matrix(0.72233325,0.00189365,0.00570283,1.3844175,0,0)"><tspan
           id="tspan1348-63-1-7"
           y="157.81778"
           x="138.41467"
           sodipodi:role="line"
           style="stroke-width:0.36629808"><tspan
             id="tspan1344-4-7-2"
             style="font-style:normal;font-variant:normal;font-weight:400;font-size:5.38000345px;font-family:'Segoe UI Emoji';fill:#000000;stroke-width:0.36629808"
             dy="0"
             dx="0">▼</tspan><tspan
             id="tspan1346-46-9-5"
             style="font-style:normal;font-variant:normal;font-weight:400;font-size:5.38000345px;font-family:Calibri;fill:#000000;stroke-width:0.36629808"
             dy="0"
             dx="0"> </tspan></tspan></text>
    </g>
    <g
       style="display:inline"
       id="g1368-14-17-0"
       transform="matrix(-0.99998768,-0.00194729,0.00861313,-0.6808591,211.18648,310.87356)">
      <path
         style="fill:none;stroke:#000000;stroke-width:0.565;stroke-linecap:butt;stroke-linejoin:miter;stroke-miterlimit:4;stroke-dasharray:none;stroke-opacity:1"
         d="m 100.09244,174.7242 0.26727,12.56166"
         id="path1329-81-65-0"
         inkscape:connector-curvature="0" />
      <text
         id="text1350-76-98-2"
         y="189.98271"
         x="98.743851"
         style="font-style:normal;font-variant:normal;font-weight:400;font-size:3.88606763px;line-height:125%;font-family:'Segoe UI Emoji';text-align:start;letter-spacing:0px;word-spacing:0px;text-anchor:start;fill:#000000;fill-opacity:1;stroke:none;stroke-width:0.26458332"
         xml:space="preserve"><tspan
           id="tspan1348-63-0-1"
           y="189.98271"
           x="98.743851"
           sodipodi:role="line"
           style="stroke-width:0.26458332"><tspan
             id="tspan1344-4-9-6"
             style="font-style:normal;font-variant:normal;font-weight:400;font-size:3.88606763px;font-family:'Segoe UI Emoji';fill:#000000;stroke-width:0.26458332"
             dy="0"
             dx="0">▼</tspan><tspan
             id="tspan1346-46-7-4"
             style="font-style:normal;font-variant:normal;font-weight:400;font-size:3.88606763px;font-family:Calibri;fill:#000000;stroke-width:0.26458332"
             dy="0"
             dx="0"> </tspan></tspan></text>
    </g>
    <text
       id="text4166-2"
       y="206.45026"
       x="143.66347"
       style="font-style:normal;font-variant:normal;font-weight:400;font-size:6.3499999px;line-height:125%;font-family:'Cambria Math';text-align:start;letter-spacing:0px;word-spacing:0px;text-anchor:start;display:inline;fill:#000000;fill-opacity:1;stroke:none;stroke-width:0.26458332"
       xml:space="preserve"><tspan
         id="tspan4164-8"
         y="206.45026"
         x="143.66347"
         sodipodi:role="line"
         style="font-size:6.3499999px;stroke-width:0.26458332">L=$200</tspan></text>
    <text
       id="text4263"
       y="175.8524"
       x="111.92354"
       style="font-style:normal;font-variant:normal;font-weight:400;font-size:6.3499999px;line-height:125%;font-family:'Cambria Math';text-align:start;letter-spacing:0px;word-spacing:0px;text-anchor:start;display:inline;fill:#000000;fill-opacity:1;stroke:none;stroke-width:0.26458332"
       xml:space="preserve"><tspan
         id="tspan4261"
         y="175.8524"
         x="111.92354"
         sodipodi:role="line"
         style="font-size:4.93888903px;stroke-width:0.26458332">$800</tspan></text>
    <text
       id="text4479-8"
       y="161.39308"
       x="122.42433"
       style="font-style:normal;font-variant:normal;font-weight:400;font-size:4.94440174px;line-height:125%;font-family:'Cambria Math';text-align:start;letter-spacing:0px;word-spacing:0px;text-anchor:start;display:inline;fill:#000000;fill-opacity:1;stroke:none;stroke-width:0.26458332"
       xml:space="preserve"><tspan
         id="tspan4477-0"
         y="161.39308"
         x="122.42433"
         sodipodi:role="line"
         style="stroke-width:0.26458332">$1.000</tspan></text>
    <text
       id="text4510-0"
       y="154.48959"
       x="141.02481"
       style="font-style:normal;font-variant:normal;font-weight:400;font-size:4.94440174px;line-height:125%;font-family:'Cambria Math';text-align:start;letter-spacing:0px;word-spacing:0px;text-anchor:start;display:inline;fill:#000000;fill-opacity:1;stroke:none;stroke-width:0.26458332"
       xml:space="preserve"><tspan
         id="tspan4508-2"
         y="154.48959"
         x="141.02481"
         sodipodi:role="line"
         style="stroke-width:0.26458332">$1.200</tspan></text>
    <text
       id="text4543-9"
       y="152.31541"
       x="162.75584"
       style="font-style:normal;font-variant:normal;font-weight:400;font-size:4.94440174px;line-height:125%;font-family:'Cambria Math';text-align:start;letter-spacing:0px;word-spacing:0px;text-anchor:start;display:inline;fill:#000000;fill-opacity:1;stroke:none;stroke-width:0.26458332"
       xml:space="preserve"><tspan
         id="tspan4541-4"
         y="152.31541"
         x="162.75584"
         sodipodi:role="line"
         style="stroke-width:0.26458332">$1.400</tspan></text>
    <text
       id="text4575-7"
       y="142.9662"
       x="182.88718"
       style="font-style:normal;font-variant:normal;font-weight:400;font-size:4.94440174px;line-height:125%;font-family:'Cambria Math';text-align:start;letter-spacing:0px;word-spacing:0px;text-anchor:start;display:inline;fill:#000000;fill-opacity:1;stroke:none;stroke-width:0.26458332"
       xml:space="preserve"><tspan
         id="tspan4573-9"
         y="142.9662"
         x="182.88718"
         sodipodi:role="line"
         style="stroke-width:0.26458332">$1.600</tspan></text>
    <text
       id="text4606-4"
       y="140.31874"
       x="204.84981"
       style="font-style:normal;font-variant:normal;font-weight:400;font-size:4.94440174px;line-height:125%;font-family:'Cambria Math';text-align:start;letter-spacing:0px;word-spacing:0px;text-anchor:start;display:inline;fill:#000000;fill-opacity:1;stroke:none;stroke-width:0.26458332"
       xml:space="preserve"><tspan
         id="tspan4604-3"
         y="140.31874"
         x="204.84981"
         sodipodi:role="line"
         style="stroke-width:0.26458332">$1.800</tspan></text>
    <g
       style="display:inline"
       id="g1368-14-17-0-3"
       transform="matrix(0.99993617,-0.00894349,0.01014656,1.0707973,-27.69476,5.4023099)">
      <path
         style="fill:none;stroke:#000000;stroke-width:0.565;stroke-linecap:butt;stroke-linejoin:miter;stroke-miterlimit:4;stroke-dasharray:none;stroke-opacity:1"
         d="m 100.09244,174.7242 0.26727,12.56166"
         id="path1329-81-65-0-3"
         inkscape:connector-curvature="0" />
      <text
         id="text1350-76-98-2-0"
         y="189.98271"
         x="98.743851"
         style="font-style:normal;font-variant:normal;font-weight:400;font-size:3.88606763px;line-height:125%;font-family:'Segoe UI Emoji';text-align:start;letter-spacing:0px;word-spacing:0px;text-anchor:start;fill:#000000;fill-opacity:1;stroke:none;stroke-width:0.26458332"
         xml:space="preserve"><tspan
           id="tspan1348-63-0-1-8"
           y="189.98271"
           x="98.743851"
           sodipodi:role="line"
           style="stroke-width:0.26458332"><tspan
             id="tspan1344-4-9-6-1"
             style="font-style:normal;font-variant:normal;font-weight:400;font-size:3.88606763px;font-family:'Segoe UI Emoji';fill:#000000;stroke-width:0.26458332"
             dy="0"
             dx="0">▼</tspan><tspan
             id="tspan1346-46-7-4-0"
             style="font-style:normal;font-variant:normal;font-weight:400;font-size:3.88606763px;font-family:Calibri;fill:#000000;stroke-width:0.26458332"
             dy="0"
             dx="0"> </tspan></tspan></text>
    </g>
    <text
       transform="matrix(-0.77972952,0.40633706,-0.52261791,-1.0101464,0,0)"
       id="text1350-76-98-2-2"
       y="-197.51372"
       x="1.8456699"
       style="font-style:normal;font-variant:normal;font-weight:400;font-size:4.41970778px;line-height:125%;font-family:'Segoe UI Emoji';text-align:start;letter-spacing:0px;word-spacing:0px;text-anchor:start;display:inline;fill:#0c7cba;fill-opacity:1;stroke:none;stroke-width:0.30091622"
       xml:space="preserve"><tspan
         id="tspan1348-63-0-1-4"
         y="-197.51372"
         x="1.8456699"
         sodipodi:role="line"
         style="fill:#0c7cba;fill-opacity:1;stroke-width:0.30091622"><tspan
           id="tspan1344-4-9-6-7"
           style="font-style:normal;font-variant:normal;font-weight:400;font-size:4.41970778px;font-family:'Segoe UI Emoji';fill:#0c7cba;fill-opacity:1;stroke-width:0.30091622"
           dy="0"
           dx="0">▼</tspan><tspan
           id="tspan1346-46-7-4-2"
           style="font-style:normal;font-variant:normal;font-weight:400;font-size:4.41970778px;font-family:Calibri;fill:#0c7cba;fill-opacity:1;stroke-width:0.30091622"
           dy="0"
           dx="0"> </tspan></tspan></text>
    <text
       id="text7933"
       y="212.44266"
       x="141.59335"
       style="font-style:normal;font-variant:normal;font-weight:400;font-size:3.88606763px;line-height:125%;font-family:'Cambria Math';text-align:start;letter-spacing:0px;word-spacing:0px;text-anchor:start;display:inline;fill:#000000;fill-opacity:1;stroke:none;stroke-width:0.26458332"
       xml:space="preserve"><tspan
         id="tspan7931"
         y="212.44266"
         x="141.59335"
         sodipodi:role="line"
         style="font-size:6.3499999px;stroke-width:0.26458332"><tspan
           id="tspan7923"
           style="font-style:normal;font-variant:normal;font-weight:400;font-size:6.3499999px;font-family:'Cambria Math';fill:#000000;stroke-width:0.26458332"
           dy="0 0 0 0 0"
           dx="0 0.2872214 0 0 0">i =5%pav</tspan><tspan
           id="tspan7929"
           style="font-style:normal;font-variant:normal;font-weight:400;font-size:6.3499999px;font-family:Calibri;fill:#000000;stroke-width:0.26458332"
           dy="0"
           dx="0"> </tspan></tspan></text>
    <text
       id="text7964"
       y="211.76173"
       x="79.157822"
       style="font-style:normal;font-variant:normal;font-weight:400;font-size:3.88606763px;line-height:125%;font-family:'Cambria Math';text-align:start;letter-spacing:0px;word-spacing:0px;text-anchor:start;display:inline;fill:#000000;fill-opacity:1;stroke:none;stroke-width:0.26458332"
       xml:space="preserve"><tspan
         id="tspan7962"
         y="215.2702"
         x="79.157822"
         sodipodi:role="line"
         style="font-size:5.64444447px;stroke-width:0.26458332" /></text>
    <text
       id="text7995"
       y="170.76476"
       x="68.858452"
       style="font-style:normal;font-variant:normal;font-weight:400;font-size:3.88606763px;line-height:125%;font-family:'Cambria Math';text-align:start;letter-spacing:0px;word-spacing:0px;text-anchor:start;display:inline;fill:#000000;fill-opacity:1;stroke:none;stroke-width:0.26458332"
       xml:space="preserve"><tspan
         id="tspan7993"
         y="170.76476"
         x="68.858452"
         sodipodi:role="line"
         style="font-size:5.64444447px;stroke-width:0.26458332">ff</tspan></text>
    <path
       style="display:inline;fill:none;stroke:#000000;stroke-width:0.56500006;stroke-linecap:butt;stroke-linejoin:miter;stroke-miterlimit:4;stroke-dasharray:3.39000004, 0.56500001;stroke-dashoffset:0;stroke-opacity:1"
       d="m 74.698129,154.33574 0.18899,37.04167"
       id="path8015"
       inkscape:connector-curvature="0" />
    <g
       style="display:inline"
       id="g1368-14-17-0-9"
       transform="matrix(-0.99998768,-0.00159686,0.00861313,-0.55833413,196.40914,289.12636)">
      <path
         style="fill:none;stroke:#000000;stroke-width:0.565;stroke-linecap:butt;stroke-linejoin:miter;stroke-miterlimit:4;stroke-dasharray:none;stroke-opacity:1"
         d="m 100.09244,174.7242 0.26727,12.56166"
         id="path1329-81-65-0-37"
         inkscape:connector-curvature="0" />
      <text
         id="text1350-76-98-2-4"
         y="189.98271"
         x="98.743851"
         style="font-style:normal;font-variant:normal;font-weight:400;font-size:3.88606763px;line-height:125%;font-family:'Segoe UI Emoji';text-align:start;letter-spacing:0px;word-spacing:0px;text-anchor:start;fill:#000000;fill-opacity:1;stroke:none;stroke-width:0.26458332"
         xml:space="preserve"><tspan
           id="tspan1348-63-0-1-5"
           y="189.98271"
           x="98.743851"
           sodipodi:role="line"
           style="stroke-width:0.26458332"><tspan
             id="tspan1344-4-9-6-9"
             style="font-style:normal;font-variant:normal;font-weight:400;font-size:3.88606763px;font-family:'Segoe UI Emoji';fill:#000000;stroke-width:0.26458332"
             dy="0"
             dx="0">▼</tspan><tspan
             id="tspan1346-46-7-4-21"
             style="font-style:normal;font-variant:normal;font-weight:400;font-size:3.88606763px;font-family:Calibri;fill:#000000;stroke-width:0.26458332"
             dy="0"
             dx="0"> </tspan></tspan></text>
    </g>
    <g
       style="display:inline"
       id="g1368-14-17-0-8"
       transform="matrix(-0.99998768,-0.00369942,0.00861313,-1.2934839,182.98691,427.31819)">
      <path
         style="fill:none;stroke:#000000;stroke-width:0.38293621;stroke-linecap:butt;stroke-linejoin:miter;stroke-miterlimit:4;stroke-dasharray:none;stroke-opacity:1"
         d="m 100.14948,181.75448 0.21369,5.52627"
         id="path1329-81-65-0-8"
         inkscape:connector-curvature="0" />
      <text
         id="text1350-76-98-2-1"
         y="188.9496"
         x="98.734947"
         style="font-style:normal;font-variant:normal;font-weight:400;font-size:3.88606763px;line-height:125%;font-family:'Segoe UI Emoji';text-align:start;letter-spacing:0px;word-spacing:0px;text-anchor:start;fill:#000000;fill-opacity:1;stroke:none;stroke-width:0.26458332"
         xml:space="preserve"><tspan
           id="tspan1348-63-0-1-1"
           y="188.9496"
           x="98.734947"
           sodipodi:role="line"
           style="stroke-width:0.26458332"><tspan
             id="tspan1344-4-9-6-5"
             style="font-style:normal;font-variant:normal;font-weight:400;font-size:3.88606763px;font-family:'Segoe UI Emoji';fill:#000000;stroke-width:0.26458332"
             dy="0"
             dx="0">▼</tspan><tspan
             id="tspan1346-46-7-4-03"
             style="font-style:normal;font-variant:normal;font-weight:400;font-size:3.88606763px;font-family:Calibri;fill:#000000;stroke-width:0.26458332"
             dy="0"
             dx="0"> </tspan></tspan></text>
    </g>
    <text
       id="text4263-8"
       y="175.44429"
       x="94.088669"
       style="font-style:normal;font-variant:normal;font-weight:400;font-size:6.3499999px;line-height:125%;font-family:'Cambria Math';text-align:start;letter-spacing:0px;word-spacing:0px;text-anchor:start;display:inline;fill:#000000;fill-opacity:1;stroke:none;stroke-width:0.26458332"
       xml:space="preserve"><tspan
         id="tspan4261-3"
         y="175.44429"
         x="94.088669"
         sodipodi:role="line"
         style="font-size:4.93888903px;stroke-width:0.26458332">$800</tspan></text>
    <text
       id="text4263-5"
       y="175.44429"
       x="79.121582"
       style="font-style:normal;font-variant:normal;font-weight:400;font-size:6.3499999px;line-height:125%;font-family:'Cambria Math';text-align:start;letter-spacing:0px;word-spacing:0px;text-anchor:start;display:inline;fill:#000000;fill-opacity:1;stroke:none;stroke-width:0.26458332"
       xml:space="preserve"><tspan
         id="tspan4261-4"
         y="175.44429"
         x="79.121582"
         sodipodi:role="line"
         style="font-size:4.93888903px;stroke-width:0.26458332">$800</tspan></text>
    <text
       transform="scale(0.96962495,1.0313266)"
       id="text1787-14-5-9"
       y="193.4752"
       x="171.58997"
       style="font-style:normal;font-weight:normal;font-size:4.61203337px;line-height:1.25;font-family:sans-serif;letter-spacing:0px;word-spacing:0px;display:inline;fill:#000000;fill-opacity:1;stroke:none;stroke-width:0.11530083"
       xml:space="preserve"><tspan
         style="stroke-width:0.11530083"
         y="193.4752"
         x="171.58997"
         id="tspan1785-3-9-9"
         sodipodi:role="line">6</tspan></text>
    <text
       transform="scale(0.96962495,1.0313266)"
       id="text1787-14-5-7"
       y="193.4752"
       x="193.09006"
       style="font-style:normal;font-weight:normal;font-size:4.61203337px;line-height:1.25;font-family:sans-serif;letter-spacing:0px;word-spacing:0px;display:inline;fill:#000000;fill-opacity:1;stroke:none;stroke-width:0.11530083"
       xml:space="preserve"><tspan
         style="stroke-width:0.11530083"
         y="193.4752"
         x="193.09006"
         id="tspan1785-3-9-6"
         sodipodi:role="line">7</tspan></text>
    <text
       id="text8554"
       y="218.79047"
       x="143.04395"
       style="font-style:normal;font-variant:normal;font-weight:400;font-size:3.88606763px;line-height:125%;font-family:'Cambria Math';text-align:start;letter-spacing:0px;word-spacing:0px;text-anchor:start;fill:#000000;fill-opacity:1;stroke:none;stroke-width:0.26458332"
       xml:space="preserve"><tspan
         id="tspan8552"
         y="218.79047"
         x="143.04395"
         sodipodi:role="line"
         style="stroke-width:0.26458332;font-size:5.64444444px"><tspan
           id="tspan8540"
           style="font-style:normal;font-variant:normal;font-weight:400;font-size:5.64444444px;font-family:'Cambria Math';fill:#000000;stroke-width:0.26458332"
           dy="0"
           dx="0">𝑛2=6𝑝𝑎𝑣</tspan><tspan
           id="tspan8550"
           style="font-style:normal;font-variant:normal;font-weight:400;font-size:5.64444444px;font-family:Calibri;fill:#000000;stroke-width:0.26458332"
           dy="0"
           dx="0.18525173"> </tspan></tspan></text>
    <text
       xml:space="preserve"
       style="font-style:normal;font-weight:normal;font-size:10.58333302px;line-height:1.25;font-family:sans-serif;letter-spacing:0px;word-spacing:0px;fill:#000000;fill-opacity:1;stroke:none;stroke-width:0.26458332"
       x="103.96784"
       y="225.37177"
       id="text8607"><tspan
         sodipodi:role="line"
         id="tspan8605"
         x="103.96784"
         y="235.02727"
         style="stroke-width:0.26458332" /></text>
    <text
       id="text4166-2-4"
       y="232.31116"
       x="69.226486"
       style="font-style:normal;font-variant:normal;font-weight:400;font-size:6.3499999px;line-height:125%;font-family:'Cambria Math';text-align:start;letter-spacing:0px;word-spacing:0px;text-anchor:start;display:inline;fill:#000000;fill-opacity:1;stroke:none;stroke-width:0.26458332"
       xml:space="preserve"><tspan
         id="tspan4164-8-8"
         y="232.31116"
         x="69.226486"
         sodipodi:role="line"
         style="font-size:6.3499999px;stroke-width:0.26458332">L=$200</tspan></text>
    <text
       id="text7933-0"
       y="238.14894"
       x="69.711975"
       style="font-style:normal;font-variant:normal;font-weight:400;font-size:3.88606763px;line-height:125%;font-family:'Cambria Math';text-align:start;letter-spacing:0px;word-spacing:0px;text-anchor:start;display:inline;fill:#000000;fill-opacity:1;stroke:none;stroke-width:0.26458332"
       xml:space="preserve"><tspan
         id="tspan7931-8"
         y="238.14894"
         x="69.711975"
         sodipodi:role="line"
         style="font-size:6.3499999px;stroke-width:0.26458332"><tspan
           id="tspan7923-0"
           style="font-style:normal;font-variant:normal;font-weight:400;font-size:6.3499999px;font-family:'Cambria Math';fill:#000000;stroke-width:0.26458332"
           dy="0 0 0 0 0"
           dx="0 0.28722143 0 0 0">i =5%pav</tspan><tspan
           id="tspan7929-8"
           style="font-style:normal;font-variant:normal;font-weight:400;font-size:6.3499999px;font-family:Calibri;fill:#000000;stroke-width:0.26458332"
           dy="0"
           dx="0"> </tspan></tspan></text>
    <text
       id="text8674"
       y="243.64655"
       x="70.509689"
       style="font-style:normal;font-variant:normal;font-weight:400;font-size:3.88606763px;line-height:125%;font-family:'Cambria Math';text-align:start;letter-spacing:0px;word-spacing:0px;text-anchor:start;fill:#000000;fill-opacity:1;stroke:none;stroke-width:0.26458332"
       xml:space="preserve"><tspan
         id="tspan8672"
         y="243.64655"
         x="70.509689"
         sodipodi:role="line"
         style="stroke-width:0.26458332;font-size:5.64444444px"><tspan
           id="tspan8654"
           style="font-style:normal;font-variant:normal;font-weight:400;font-size:5.64444444px;font-family:'Cambria Math';fill:#000000;stroke-width:0.26458332"
           dy="0"
           dx="0">𝑛1=2 𝑝𝑎𝑣</tspan><tspan
           id="tspan8670"
           style="font-style:normal;font-variant:normal;font-weight:400;font-size:5.64444444px;font-family:Calibri;fill:#000000;stroke-width:0.26458332"
           dy="0"
           dx="0"> </tspan></tspan></text>
    <text
       id="text8711"
       y="152.11826"
       x="64.823311"
       style="font-style:normal;font-variant:normal;font-weight:400;font-size:3.88606763px;line-height:125%;font-family:'Cambria Math';text-align:start;letter-spacing:0px;word-spacing:0px;text-anchor:start;fill:#000000;fill-opacity:1;stroke:none;stroke-width:0.26458332"
       xml:space="preserve"><tspan
         id="tspan8709"
         y="152.11826"
         x="64.823311"
         sodipodi:role="line"
         style="font-size:5.64444447px;stroke-width:0.26458332"><tspan
           id="tspan8697"
           style="font-style:normal;font-variant:normal;font-weight:400;font-size:5.64444447px;font-family:'Cambria Math';fill:#000000;stroke-width:0.26458332"
           dy="0 0 0 0 0 0 0"
           dx="0 0 0.29987529 0 1.8691911 0 0.61604261">𝑉𝑃 =$¿?</tspan><tspan
           id="tspan8707"
           style="font-style:normal;font-variant:normal;font-weight:400;font-size:5.64444447px;font-family:Calibri;fill:#000000;stroke-width:0.26458332"
           dy="0"
           dx="0"> </tspan></tspan></text>
    <path
       sodipodi:nodetypes="csc"
       inkscape:connector-curvature="0"
       id="path1335-2-4"
       d="m 98.241582,201.70528 c 0,0 -1.342827,17.72302 -9.157152,17.13521 -7.941991,-0.59739 -4.450502,2.91309 -13.377419,-7.51877"
       style="display:inline;fill:none;stroke:#0c7cba;stroke-width:0.502;stroke-linecap:butt;stroke-linejoin:miter;stroke-miterlimit:4;stroke-dasharray:1.506,1.506;stroke-dashoffset:0;stroke-opacity:1" />
    <text
       transform="matrix(-0.8354905,0.27394084,-0.3511481,-1.0817672,0,0)"
       id="text1350-76-98-2-2-1"
       y="-194.39316"
       x="-9.510993"
       style="font-style:normal;font-variant:normal;font-weight:400;font-size:4.41970778px;line-height:125%;font-family:'Segoe UI Emoji';text-align:start;letter-spacing:0px;word-spacing:0px;text-anchor:start;display:inline;fill:#0c7cba;fill-opacity:1;stroke:none;stroke-width:0.30091622"
       xml:space="preserve"><tspan
         id="tspan1348-63-0-1-4-6"
         y="-194.39316"
         x="-9.510993"
         sodipodi:role="line"
         style="fill:#0c7cba;fill-opacity:1;stroke-width:0.30091622"><tspan
           id="tspan1344-4-9-6-7-4"
           style="font-style:normal;font-variant:normal;font-weight:400;font-size:4.41970778px;font-family:'Segoe UI Emoji';fill:#0c7cba;fill-opacity:1;stroke-width:0.30091622"
           dy="0"
           dx="0">▼</tspan><tspan
           id="tspan1346-46-7-4-2-8"
           style="font-style:normal;font-variant:normal;font-weight:400;font-size:4.41970778px;font-family:Calibri;fill:#0c7cba;fill-opacity:1;stroke-width:0.30091622"
           dy="0"
           dx="0"> </tspan></tspan></text>
    <path
       style="fill:none;stroke:#0c7cba;stroke-width:0.665;stroke-linecap:butt;stroke-linejoin:miter;stroke-opacity:1;stroke-miterlimit:4;stroke-dasharray:none"
       d="M 80.448128,182.34137 99.958802,182.0741"
       id="path10846"
       inkscape:connector-curvature="0" />
  </g>
</svg>
